^C:\ISEP\EDOM\EDOM-18-19-ATB-73\PROJECT-RESEARCH-TOPIC\REQUIREMENTS\DSLPACKAGE\COMMANDS.VSCT
C:\ISEP\EDOM\EDOM-18-19-ATB-73\PROJECT-RESEARCH-TOPIC\REQUIREMENTS\DSLPACKAGE\COMMANDS.VSCT
C:\PROGRAM FILES (X86)\MICROSOFT VISUAL STUDIO\2017\PROFESSIONAL\VSSDK\VISUALSTUDIOINTEGRATION\COMMON\INC\VIRTKEYS.H
C:\ISEP\EDOM\EDOM-18-19-ATB-73\PROJECT-RESEARCH-TOPIC\REQUIREMENTS\DSLPACKAGE\GENERATEDCODE\GENERATEDVSCT.VSCT
C:\PROGRAM FILES (X86)\MICROSOFT VISUAL STUDIO\2017\PROFESSIONAL\VSSDK\VISUALSTUDIOINTEGRATION\COMMON\INC\DSLTOOLSCMDID.H
C:\PROGRAM FILES (X86)\MICROSOFT VISUAL STUDIO\2017\PROFESSIONAL\VSSDK\VISUALSTUDIOINTEGRATION\COMMON\INC\VSSHLIDS.H
C:\PROGRAM FILES (X86)\MICROSOFT VISUAL STUDIO\2017\PROFESSIONAL\VSSDK\VISUALSTUDIOINTEGRATION\COMMON\INC\STDIDCMD.H
